src/tb.vcd
$date
	Thu Oct 27 13:23:47 2022
$end
$version
	Icarus Verilog
$end
$timescale
	1ps
$end
$scope module tb $end
$var wire 1 ! CLK $end
$var wire 1 " RST $end
$var wire 8 # outputs [7:0] $end
$var wire 8 $ inputs [7:0] $end
$var wire 4 % OUT [3:0] $end
$scope module logisim_demo $end
$var wire 8 & io_in [7:0] $end
$var wire 1 ' s_RST $end
$var wire 1 ( s_O_3 $end
$var wire 1 ) s_O_2 $end
$var wire 1 * s_O_1 $end
$var wire 1 + s_O_0 $end
$var wire 1 , s_CLK $end
$var wire 8 - io_out [7:0] $end
$scope module CIRCUIT_0 $end
$var wire 1 , CLK $end
$var wire 1 + O_0 $end
$var wire 1 * O_1 $end
$var wire 1 ) O_2 $end
$var wire 1 ( O_3 $end
$var wire 1 ' RST $end
$var wire 1 . s_logisimNet12 $end
$var wire 1 / s_logisimNet16 $end
$var wire 1 0 s_logisimNet17 $end
$var wire 1 1 s_logisimNet2 $end
$var wire 1 2 s_logisimNet4 $end
$var wire 1 3 s_logisimNet8 $end
$var wire 1 4 s_logisimNet9 $end
$var wire 1 5 s_logisimNet7 $end
$var wire 1 6 s_logisimNet6 $end
$var wire 1 7 s_logisimNet5 $end
$var wire 1 8 s_logisimNet3 $end
$var wire 1 9 s_logisimNet15 $end
$var wire 1 : s_logisimNet14 $end
$var wire 1 ; s_logisimNet13 $end
$var wire 1 < s_logisimNet11 $end
$var wire 1 = s_logisimNet10 $end
$var wire 1 > s_logisimNet1 $end
$var wire 1 ? s_logisimNet0 $end
$scope module GATES_1 $end
$var wire 1 2 input1 $end
$var wire 1 4 result $end
$var wire 1 @ s_realInput1 $end
$var wire 1 A s_realInput2 $end
$var wire 1 : input2 $end
$upscope $end
$scope module GATES_2 $end
$var wire 1 2 input1 $end
$var wire 1 5 result $end
$var wire 1 B s_realInput1 $end
$var wire 1 C s_realInput2 $end
$var wire 1 > input2 $end
$upscope $end
$scope module GATES_3 $end
$var wire 1 2 input1 $end
$var wire 1 7 result $end
$var wire 1 D s_realInput1 $end
$var wire 1 E s_realInput2 $end
$var wire 1 ? input2 $end
$upscope $end
$scope module GATES_4 $end
$var wire 1 . input2 $end
$var wire 1 6 result $end
$var wire 1 F s_realInput1 $end
$var wire 1 G s_realInput2 $end
$var wire 1 8 input1 $end
$upscope $end
$scope module MEMORY_5 $end
$var wire 1 1 clock $end
$var wire 1 3 d $end
$var wire 1 H preset $end
$var wire 1 = q $end
$var wire 1 8 qBar $end
$var wire 1 I reset $end
$var wire 1 J s_clock $end
$var wire 1 K s_nextState $end
$var wire 1 L tick $end
$var reg 1 M s_currentState $end
$upscope $end
$scope module MEMORY_6 $end
$var wire 1 1 clock $end
$var wire 1 6 d $end
$var wire 1 N preset $end
$var wire 1 9 q $end
$var wire 1 : qBar $end
$var wire 1 O reset $end
$var wire 1 P s_clock $end
$var wire 1 Q s_nextState $end
$var wire 1 R tick $end
$var reg 1 S s_currentState $end
$upscope $end
$scope module MEMORY_7 $end
$var wire 1 1 clock $end
$var wire 1 / d $end
$var wire 1 T preset $end
$var wire 1 ; q $end
$var wire 1 > qBar $end
$var wire 1 U reset $end
$var wire 1 V s_clock $end
$var wire 1 W s_nextState $end
$var wire 1 X tick $end
$var reg 1 Y s_currentState $end
$upscope $end
$scope module MEMORY_8 $end
$var wire 1 1 clock $end
$var wire 1 0 d $end
$var wire 1 Z preset $end
$var wire 1 < q $end
$var wire 1 ? qBar $end
$var wire 1 [ reset $end
$var wire 1 \ s_clock $end
$var wire 1 ] s_nextState $end
$var wire 1 ^ tick $end
$var reg 1 _ s_currentState $end
$upscope $end
$upscope $end
$upscope $end
$upscope $end
$enddefinitions $end
#0
$dumpvars
0_
1^
0]
1\
0[
0Z
0Y
1X
0W
1V
0U
0T
xS
1R
1Q
1P
0O
0N
0M
1L
0K
1J
0I
0H
0G
1F
1E
1D
1C
1B
xA
1@
1?
1>
0=
0<
0;
x:
x9
18
17
16
15
14
03
12
11
00
0/
0.
bz000x -
1,
x+
0*
0)
0(
1'
b11 &
b0x %
b11 $
bz000x #
1"
1!
$end
#250000000000
0J
0P
0V
0\
01
0,
b10 $
b10 &
0!
#500000000000
0A
0:
b1 %
bz0001 #
bz0001 -
1+
19
1S
1J
1P
1V
1\
11
1,
b11 $
b11 &
1!
#750000000000
0J
0P
0V
0\
01
0,
b10 $
b10 &
0!
#1000000000000
1J
1P
1V
1\
11
1,
b11 $
b11 &
1!
#1250000000000
0J
0P
0V
0\
01
0,
b10 $
b10 &
0!
#1500000000000
1J
1P
1V
1\
11
1,
b11 $
b11 &
1!
#1750000000000
0J
0P
0V
0\
01
0,
b10 $
b10 &
0!
#2000000000000
1J
1P
1V
1\
11
1,
b11 $
b11 &
1!
#2250000000000
0J
0P
0V
0\
01
0,
b10 $
b10 &
0!
#2500000000000
1J
1P
1V
1\
11
1,
b11 $
b11 &
1!
#2750000000000
0J
0P
0V
0\
01
0,
b10 $
b10 &
0!
#3000000000000
1J
1P
1V
1\
11
1,
b11 $
b11 &
1!
#3250000000000
0J
0P
0V
0\
01
0,
b10 $
b10 &
0!
#3500000000000
1J
1P
1V
1\
11
1,
b11 $
b11 &
1!
#3750000000000
0J
0P
0V
0\
01
0,
b10 $
b10 &
0!
#4000000000000
1J
1P
1V
1\
11
1,
b11 $
b11 &
1!
#4250000000000
0J
0P
0V
0\
01
0,
b10 $
b10 &
0!
#4500000000000
0Q
06
1W
1/
1G
1.
04
0@
0B
0D
02
0'
0"
1J
1P
1V
1\
11
1,
b1 $
b1 &
1!
#4750000000000
0J
0P
0V
0\
01
0,
b0 $
b0 &
0!
#5000000000000
0W
0/
1]
10
14
05
1A
1:
0C
0>
b10 %
0+
09
0S
bz0010 #
bz0010 -
1*
1;
1Y
1J
1P
1V
1\
11
1,
b1 $
b1 &
1!
#5250000000000
0J
0P
0V
0\
01
0,
b0 $
b0 &
0!
#5500000000000
0]
00
1K
13
15
07
1C
1>
0E
0?
b100 %
0*
0;
0Y
bz0100 #
bz0100 -
1)
1<
1_
1J
1P
1V
1\
11
1,
b1 $
b1 &
1!
#5750000000000
0J
0P
0V
0\
01
0,
b0 $
b0 &
0!
#6000000000000
1Q
16
0K
03
17
0F
08
1E
1?
b1000 %
1(
1=
1M
bz1000 #
bz1000 -
0)
0<
0_
1J
1P
1V
1\
11
1,
b1 $
b1 &
1!
#6250000000000
0J
0P
0V
0\
01
0,
b0 $
b0 &
0!
#6500000000000
0Q
06
1W
1/
04
1F
18
0A
0:
b1 %
0(
0=
0M
bz0001 #
bz0001 -
1+
19
1S
1J
1P
1V
1\
11
1,
b1 $
b1 &
1!
#6750000000000
0J
0P
0V
0\
01
0,
b0 $
b0 &
0!
#7000000000000
0W
0/
1]
10
14
05
1A
1:
0C
0>
b10 %
0+
09
0S
bz0010 #
bz0010 -
1*
1;
1Y
1J
1P
1V
1\
11
1,
b1 $
b1 &
1!
#7250000000000
0J
0P
0V
0\
01
0,
b0 $
b0 &
0!
#7500000000000
0]
00
1K
13
15
07
1C
1>
0E
0?
b100 %
0*
0;
0Y
bz0100 #
bz0100 -
1)
1<
1_
1J
1P
1V
1\
11
1,
b1 $
b1 &
1!
#7750000000000
0J
0P
0V
0\
01
0,
b0 $
b0 &
0!
#8000000000000
1Q
16
0K
03
17
0F
08
1E
1?
b1000 %
1(
1=
1M
bz1000 #
bz1000 -
0)
0<
0_
1J
1P
1V
1\
11
1,
b1 $
b1 &
1!
#8250000000000
0J
0P
0V
0\
01
0,
b0 $
b0 &
0!
#8500000000000
0Q
06
1W
1/
04
1F
18
0A
0:
b1 %
0(
0=
0M
bz0001 #
bz0001 -
1+
19
1S
1J
1P
1V
1\
11
1,
b1 $
b1 &
1!
#8750000000000
0J
0P
0V
0\
01
0,
b0 $
b0 &
0!
#9000000000000
0W
0/
1]
10
14
05
1A
1:
0C
0>
b10 %
0+
09
0S
bz0010 #
bz0010 -
1*
1;
1Y
1J
1P
1V
1\
11
1,
b1 $
b1 &
1!
#9250000000000
0J
0P
0V
0\
01
0,
b0 $
b0 &
0!
#9500000000000
0]
00
1K
13
15
07
1C
1>
0E
0?
b100 %
0*
0;
0Y
bz0100 #
bz0100 -
1)
1<
1_
1J
1P
1V
1\
11
1,
b1 $
b1 &
1!
#9750000000000
0J
0P
0V
0\
01
0,
b0 $
b0 &
0!
#10000000000000
1Q
16
0K
03
17
0F
08
1E
1?
b1000 %
1(
1=
1M
bz1000 #
bz1000 -
0)
0<
0_
1J
1P
1V
1\
11
1,
b1 $
b1 &
1!
#10250000000000
0J
0P
0V
0\
01
0,
b0 $
b0 &
0!
#10500000000000
0Q
06
1W
1/
04
1F
18
0A
0:
b1 %
0(
0=
0M
bz0001 #
bz0001 -
1+
19
1S
1J
1P
1V
1\
11
1,
b1 $
b1 &
1!
#10750000000000
0J
0P
0V
0\
01
0,
b0 $
b0 &
0!
#11000000000000
0W
0/
1]
10
14
05
1A
1:
0C
0>
b10 %
0+
09
0S
bz0010 #
bz0010 -
1*
1;
1Y
1J
1P
1V
1\
11
1,
b1 $
b1 &
1!
#11250000000000
0J
0P
0V
0\
01
0,
b0 $
b0 &
0!
#11500000000000
0]
00
1K
13
15
07
1C
1>
0E
0?
b100 %
0*
0;
0Y
bz0100 #
bz0100 -
1)
1<
1_
1J
1P
1V
1\
11
1,
b1 $
b1 &
1!
#11750000000000
0J
0P
0V
0\
01
0,
b0 $
b0 &
0!
#12000000000000
1Q
16
0K
03
17
0F
08
1E
1?
b1000 %
1(
1=
1M
bz1000 #
bz1000 -
0)
0<
0_
1J
1P
1V
1\
11
1,
b1 $
b1 &
1!
#12250000000000
0J
0P
0V
0\
01
0,
b0 $
b0 &
0!
#12500000000000
0Q
06
1W
1/
04
1F
18
0A
0:
b1 %
0(
0=
0M
bz0001 #
bz0001 -
1+
19
1S
1J
1P
1V
1\
11
1,
b1 $
b1 &
1!
#12750000000000
0J
0P
0V
0\
01
0,
b0 $
b0 &
0!
#13000000000000
0W
0/
1]
10
14
05
1A
1:
0C
0>
b10 %
0+
09
0S
bz0010 #
bz0010 -
1*
1;
1Y
1J
1P
1V
1\
11
1,
b1 $
b1 &
1!
